los	spkr1	1	InitI
muss ja recht kompliziert sein	spkr2	1	InitI
wie	spkr1	1	InitI
weil ich so lange brauche	spkr1	1	ContI
mhm	spkr2	1	InitI
lag wohl an mir	spkr1	1	InitI
#ähm	spkr1	1	ContI
und zwar	spkr1	1	ContI
bauen wir ein flugzeug	spkr1	1	ContI
mhm	spkr2	5	AckR
#ähm	spkr1	1	InitI
wir haben	spkr1	1	InitI
drei arbeitsschritte also ich habe	spkr1	1	ContI
f	spkr1	1	ContI
für meinen plan habe ich drei abbildungen	spkr1	1	RepI
der erste arbeitsschritt	spkr1	1	ContI
ähm da erzähle ich dir erstmal was wir für gegenstände brauchen damit du die hinlegen kannst und zwar eine gelbe schraube mit ähm eine achtkantige	spkr1	1	ContI
dann die eine ge	spkr1	1	ContI
ja	spkr2	1	InitI
erzähle weiter	spkr2	1	ContI
eine gelbe schraube mit	spkr1	1	InitI
äh eine runde mit schlitz	spkr1	1	ContI
dann ähm nochmal eine achtkantige rote und nochmal eine runde schl	spkr1	1	ContI
mit schlitz äh	spkr1	1	ContI
eine	spkr1	1	ContI
auch eine rote	spkr1	1	RepI
mhm	spkr2	5	AckR
und zwar die kleinen die nur zwei windungen haben	spkr1	1	InitI
mhm	spkr2	5	AckR
dann brauchen wir	spkr1	1	InitI
äh zwei von diesen platten mit	spkr1	1	ContI
fünf löchern	spkr1	1	ContI
und eine mit drei	spkr1	1	ContI
ein	spkr1	1	ContI
ähm ein würfel	spkr1	1	ContI
egal welche farbe	spkr2	1	InitI
ja 	spkr1	1	InitI
ist egal	spkr1	1	ContI
und welche	spkr1	1	ContI
an un	spkr1	1	ContI
eine flügelschraube	spkr1	1	ContI
nee 	spkr1	1	RepI
zwei flügelschrauben	spkr1	1	RepI
flügelschrauben was ist das	spkr2	1	InitI
ja 	spkr1	1	InitI
diese schrauben zum festdrehen	spkr1	1	ContI
ähm muttern	spkr1	1	ContI
mhm	spkr2	5	AckR
hast du	spkr1	1	InitI
#ähm	spkr1	1	InitI
jetzt fängst du mit dem	spkr1	1	InitI
mit dem an mit den drei	spkr1	1	ContI
mit den fünf löchern	spkr1	1	ContI
mit dem	spkr1	1	ContI
mhm	spkr2	5	AckR
langen stück	spkr1	1	InitI
und da setzt du oben	spkr1	1	ContI
#äh	spkr1	1	ContI
mit beiden	spkr2	1	InitI
oder jetzt	spkr2	1	ContI
eins	spkr2	1	ContI
nur einem	spkr1	1	InitI
mhm	spkr2	5	AckR
oben setzt du ähm eine gelbe schraube ähm	spkr1	1	InitI
eine runde mit schlitz ein	spkr1	1	ContI
also einfach reinstecken	spkr1	1	ContI
und dahinter die mit den acht ecken	spkr1	1	ContI
acht kanten	spkr1	1	ContI
dann nimmst du ähm dies sch	spkr1	1	ContI
äh mit den drei löchern das stück hölzchen und legst das so unter das es halt unter die beiden schrauben	spkr1	1	ContI
passt von unten	spkr1	1	ContI
hast du	spkr1	1	ReqAckI
mhm	spkr2	1	InitI
und dann halt die beiden	spkr1	1	InitI
ohne dass was absteht	spkr2	1	InitI
äh nach vorne steht ein loch ab von dem dreier	spkr1	1	InitI
ja	spkr1	1	ContI
mhm	spkr2	5	AckR
und jetzt nimmst du die beiden äh sch	spkr1	1	InitI
muttern also diese	spkr1	1	ContI
orangenen f	spkr1	1	ContI
äh schrauben flügelschrauben oder	spkr1	1	RepI
###
#wie heissen die	spkr1	1	InitI
#ja	spkr2	1	InitI
###
und ähm machst die beiden	spkr1	1	ContI
fest	spkr1	1	ContI
wobei also ich da	spkr1	1	ContI
leichte probleme hatte bei diesen	spkr1	1	ContI
die muss man halt irgendwie intelligent miteinander drehen damit sie sich nicht verkanten	spkr1	1	ContI
mhm	spkr2	5	AckR
#ähm	spkr1	1	InitI
jetzt nimmst du einen würfel	spkr1	1	InitI
den würfel	spkr1	1	RepI
und setzt den	spkr1	1	ContI
#äh	spkr1	1	ContI
obendrauf also	spkr1	1	ContI
da 	spkr1	1	ContI
wo jetzt das stück übersteht 	spkr1	1	ContI
mhm	spkr2	5	AckR
äh und von unten schraubst du das mit einer roten schraube mit ähm acht kanten an	spkr1	1	InitI
mhm	spkr2	5	AckR
jetzt	spkr1	1	InitI
#ähm	spkr1	1	ContI
jetzt nimmst du dieses fünfer	spkr1	1	ContI
mit den fünf löchern das hölzchen	spkr1	1	ContI
ja	spkr2	5	AckR
legst das oben auf den würfel	spkr1	1	InitI
mittig also mit dem	spkr1	1	ContI
mit dem äh mittelereren loch über dem	spkr1	1	ContI
anderen und mit der	spkr1	1	ContI
ja	spkr2	5	AckR
letzten schraube mit der roten mit schlitz andrehen	spkr1	1	InitI
sieht eher aus wie ein	spkr2	1	InitI
helikopter	spkr2	1	ContI
ja 	spkr1	1	InitI
es entwickelt sich noch	spkr1	1	ContI
stehen	spkr2	1	InitI
steht dieses ähm fünf	spkr2	1	RepI
diese schiene p	spkr2	1	RepI
parallel zu der grossen oder	spkr2	1	RepI
ach so ähm die äh m bilden einen neunzigradwinkel also	spkr1	1	InitI
mhm	spkr2	5	AckR
also einen flügel	spkr2	1	InitI
ja	spkr1	1	InitI
ähm so jetzt kommt der zweite arbeittschritt	spkr1	1	InitI
dafür brauchst du nochmal die zwei hölzchen die ganz langen	spkr1	1	ContI
#ach so jetzt wären alle	spkr1	1	InitI
#nee 	spkr1	1	RepI
und einen mit drei löchern	spkr1	1	ContI
eine achtkant grüne schraube lang	spkr1	1	ContI
achtkant orange schraue äh kurz	spkr1	1	ContI
dann eine mit schlitz eine orange	spkr1	1	ContI
und eine rote achtkant	spkr1	1	ContI
drei würfel und ein eine die zum festziehen eine mutter	spkr1	1	ContI
mhm	spkr2	5	AckR
#ähm	spkr1	1	InitI
jetzt fängst du auf der anderen seite an also äh auf der entgegengesetzten seite vom würfel	spkr1	1	InitI
und drehst da eine	spkr1	1	ContI
legst oben drauf diese beiden langen teile wieder senkrecht so zum flügel	spkr1	1	RepI
und zwar ähm ab dem zweiten loch	spkr1	1	ContI
#verstehst du also nicht das erste loch blei	spkr1	1	ReqAckI
#lässt du frei	spkr1	1	RepI
mhm mhm	spkr2	5	AckR
und ab dem zweiten legst du die beiden	spkr1	1	InitI
und äh drehst die fest mit einmal	spkr1	1	ContI
ähm mit der orangenen achtkantschraube und mit der orangenen	spkr1	1	ContI
anderen schraube	spkr1	1	ContI
moment ich habe die jetzt übereinander gelegt diese beiden schienen	spkr2	1	InitI
übereinander nebeneinander also ins dr	spkr1	1	InitI
ins	spkr1	1	ContI
zweite und ins dritte	spkr1	1	ContI
aufdas zweite und aufdas dritte loch	spkr1	1	RepI
ich habe einen würfel	spkr2	1	InitI
mit einer	spkr2	1	ContI
mhm	spkr1	5	AckR
mit einem gewinde	spkr2	1	InitI
ja	spkr1	1	InitI
#ah so	spkr1	1	InitI
#wo sind wir 	spkr1	1	ContI
#ähm	spkr1	1	ContI
du hast jetzt dieses teil was was so nach dem ersten	spkr1	1	InitI
ein	spkr1	1	RepI
also ich habe jetzt erstmal einen würfel in der hand	spkr2	1	InitI
ein würfel in der hand	spkr1	2	ReqRepR
nur ein würfel	spkr2	1	RepI
und eine rote schraube	spkr1	1	InitI
eine kurze	spkr1	1	ContI
ja	spkr2	1	InitI
ähm und ähm das kurze	spkr1	1	InitI
hölzchen mit den drei löchern	spkr1	1	ContI
mhm	spkr2	1	InitI
und jetzt schraubst du da vorne dran ähm	spkr1	1	InitI
den würfel fest also auf der einen seite die schraube auf der anderen seite	spkr1	1	ContI
das plättchen 	spkr1	1	ContI
und dann den würfel	spkr1	1	ContI
ich lege die schiene auf den würfel	spkr2	1	InitI
geil	spkr1	1	InitI
#ähm	spkr1	1	ContI
du hast ja den	spkr1	1	InitI
st	spkr1	1	ContI
ei	spkr1	1	RepI
äh einzelstück mit	spkr1	1	RepI
also	spkr2	1	InitI
ich fange ich habe ein schl	spkr2	1	ContI
ich habe jetzt nur den würfel in der hand den rot	spkr2	1	RepI
ein roten würfel in der hand	spkr2	1	RepI
mhm	spkr1	5	AckR
ja 	spkr1	1	InitI
gut	spkr1	1	ContI
mehr habe ich nicht	spkr2	1	InitI
dann lege den	spkr1	1	InitI
dann lege den würfel weg vergiss die den arbeitsschritt und nehme	spkr1	1	ContI
ähm du hast diese zwei langen latten noch nicht angebracht ne	spkr1	1	InitI
nein	spkr2	1	InitI
dann nimmst du die beiden jetzt	spkr1	1	InitI
und jetzt ähm	spkr1	1	ContI
legst du die auf auf das teil was du schon gebaut hast	spkr1	1	ContI
wie 	spkr2	1	InitI
und zwar von von der seite die noch frei ist ähm	spkr1	1	InitI
#auf der schiene	spkr2	1	InitI
#ja	spkr1	1	InitI
mhm	spkr2	5	AckR
und nimmst halt das zweite und das dritte loch	spkr1	1	InitI
beide	spkr2	1	InitI
übereinander	spkr2	1	ContI
nein	spkr1	1	InitI
nebeneinander das zweite und das dritte loch 	spkr1	1	ContI
und dann das halt wieder ein rechten winkel zu dem zu der unteren schiene bildet	spkr1	1	ContI
aber	spkr2	1	InitI
wie kann ich denn zwei schienen auf eine legen 	spkr2	1	InitI
#also ich habe jetzt den den schwanz von dem flugzeug mit den drei	spkr2	1	ContI
#ja	spkr1	5	AckR
#löchern	spkr2	1	InitI
#ja	spkr1	5	AckR
#jetzt habe ich zwei schienen	spkr2	1	InitI
zwei schienen die kannst du n	spkr1	1	InitI
in der hand halten und nebeneinander halten ne	spkr1	1	RepI
also dass die einfach	spkr1	1	ContI
nebeneinander liegen	spkr1	1	ContI
zwei lange schienen	spkr1	1	ContI
ja 	spkr2	1	InitI
die liegen jetzt nebeneinander	spkr2	1	ContI
ja	spkr1	5	AckR
und wenn du jetzt da drüber	spkr1	1	InitI
diese dritte die	spkr1	1	ContI
das was du schon gebaut hast	spkr1	1	RepI
mhm	spkr2	5	AckR
wenn du einfach ähm	spkr1	1	InitI
das da	spkr1	1	ContI
senkrecht drauflegen würdest dann können sich doch äh die löcher überschneiden von der	spkr1	1	ContI
von dem was unten liegt	spkr1	1	ContI
ah so	spkr2	5	AckR
ja	spkr2	5	AckR
ja	spkr1	1	InitI
mhm	spkr2	5	AckR
ja	spkr1	1	InitI
mhm	spkr2	5	AckR
allerdings sollen die beiden halt ähm auf dem schon gebauten liegen	spkr1	1	InitI
auf dem	spkr2	2	ReqRepR
was du im ersten ar	spkr1	1	RepI
was wir zuerst gebaut haben	spkr1	1	RepI
ja	spkr2	5	AckR
liegen jetzt drauf	spkr1	1	InitI
jeweils im vierten loch	spkr2	1	InitI
#ähm	spkr1	1	InitI
nein	spkr1	1	InitI
jeweils in in den	spkr1	1	ContI
ach so in äh so mittig ne	spkr1	1	RepI
mhm	spkr2	5	AckR
ja 	spkr1	1	InitI
genau	spkr1	1	ContI
und die liegen jetzt beide nebeneinander	spkr2	1	InitI
senkrecht auf nee waagerecht	spkr2	1	ContI
auf dem	spkr2	1	ContI
schwanz	spkr2	1	ContI
ja	spkr1	1	InitI
gut	spkr2	5	AckR
waagerecht das heisst also sie bilden einen	spkr1	1	InitI
neunziggradwinkel	spkr1	1	ContI
ein flügel	spkr2	1	InitI
#zu	spkr1	5	AckI
genau zu der	spkr1	1	InitI
schiene	spkr1	1	ContI
und der	spkr1	1	ContI
und	spkr1	1	ContI
ja	spkr2	5	AckR
jetzt nicht du fängst nicht beim ersten loch an	spkr1	1	InitI
von	spkr1	1	ContI
deiner ersten	spkr1	1	ContI
von dem	spkr1	1	ContI
#ähm	spkr1	1	ContI
schon gebauten sache	spkr1	1	ContI
sondern du fängst	spkr1	1	ContI
mit dem	spkr1	1	ContI
zweiten loch an	spkr1	1	ContI
also die liegen	spkr1	1	ContI
auf dem zweiten auf dem dritten loch	spkr1	1	ContI
ja	spkr2	1	InitI
okay	spkr1	5	AckR
#äh 	spkr1	1	ContI
und jetzt halt mit der	spkr1	1	InitI
mit den orangen schrauben	spkr1	1	ContI
die steckst du einmal durch	spkr1	1	ContI
also die mit	spkr2	1	InitI
#ähm	spkr2	1	ContI
die f	spkr2	1	ContI
achtkantige und die runde	spkr2	1	RepI
ja	spkr1	1	InitiI
mhm	spkr2	5	AckR
#ähm	spkr1	1	InitI
wobei die	spkr1	1	InitI
die runde zu dem teil hinzeigen soll also	spkr1	1	ContI
näher sein soll was	spkr1	1	ContI
#ähm	spkr1	1	ContI
was hinten der schwanz ist was schon gebaut ist also	spkr1	1	ContI
verstehst du	spkr1	1	ReqAckI
mhm	spkr2	1	InitI
und die soll jetzt festgeschraubt werden	spkr1	1	InitI
also die runde schraube liegt neben der	spkr2	1	InitI
gelben	spkr2	1	ContI
mhm	spkr1	1	InitI
achtkantigen	spkr2	1	InitI
mhm	spkr1	1	InitI
#ähm	spkr1	1	ContI
und die schraubst du jetzt fest mit einer	spkr1	1	ContI
mit einer mutter	spkr1	1	ContI
mit diesem	spkr1	1	RepI
mit dem einen was du	spkr1	1	ContI
da	spkr1	1	ContI
hast	spkr1	1	ContI
ich habe aber nur eine mutter	spkr2	1	InitI
ja	spkr1	1	InitI
du brauchst auch nur eine du sollst nur die hintere festmachen die mit dem die runde	spkr1	1	ContI
das ist aber keine gute konstruktion	spkr2	1	InitI
nee 	spkr1	1	InitI
ich habe auch ein bisschen gefriemelt bei mir ist es auch ein bisschen locker also ich glaube mein	spkr1	1	InitI
flugzeug ist nicht flugtauglich	spkr1	1	ContI
mhm	spkr2	5	AckR
hast du	spkr1	1	InitI
ähm jetzt hast du noch ein hölzchen mit drei löchern ne	spkr1	1	ContI
ja 	spkr2	1	InitI
was passiert denn mit dem zweiten teil des flügels	spkr2	1	ContI
mit dem zweiten teil des flügels	spkr1	1	InitI
ach so der der liegt jetzt einfach nur auf ja	spkr1	1	InitI
das ist auch erstmal	spkr1	1	ContI
ja 	spkr2	1	InitI
der ist ja jetzt nicht befestigt	spkr2	1	ContI
der liegt nur da mhm	spkr2	1	ContI
so richtig	spkr1	1	InitI
und	spkr1	1	ContI
gut	spkr2	5	AckR
zwar nimmst du jetzt dieses	spkr1	1	InitI
#oh sorry	spkr1	1	InitI
#i made a mistake	spkr1	1	ContI
#ähm	spkr1	1	ContI
du nimmst ähm	spkr1	1	RepI
den letzen arbeitsschritt der muss nochmal rückgängig gemacht werden	spkr1	1	RepI
die schraube f	spkr1	1	ContI
die	spkr1	1	ContI
du	spkr1	1	ContI
da so schön festgezogen hast	spkr1	1	ContI
und zwar gehörte da nämlich	spkr1	1	ContI
ähm das teil mit den drei löchern	spkr1	1	ContI
also ich mache das jetzt wieder ab	spkr2	1	InitI
ja	spkr1	1	InitI
so jetzt siehtes autz	spkr2	1	InitI
aus wie vorher	spkr2	1	ContI
ja	spkr1	5	AckR
gut	spkr2	1	InitI
jetzt hast du ähm	spkr1	1	InitI
das teil mit den drei löchern	spkr1	1	ContI
mhm	spkr2	5	AckR
### ---> Eingeschobene Fragen
und das legst du jetzt halt unter	spkr1	1	InitI
die	spkr1	1	ContI
#du hast da jetzt zwei lose schrauben da durchhängen ne	spkr1	1	ReqAckI
#also die zwei schrauben	spkr1	1	RepI
#womit du die diese äh	spkr1	1	RepI
#ja	spkr2	1	InitI
###
#plä	spkr1	1	InitI
#genau	spkr1	1	ContI
und da legst du das jetzt so drunter dass es halt	spkr1	1	ContI
ähm an zwei schrauben passt	spkr1	1	ContI
weisst du	spkr1	1	ReqAckI
zw	spkr1	1	ReqAckI
ja	spkr2	5	AckR
zwei löcher auf zwei schrauben 	spkr1	1	InitI
und jetzt kannst du die hintere	spkr1	1	ContI
die mit dem	spkr1	1	ContI
das teil habe ich vergessen	spkr1	1	ContI
ach so	spkr2	1	InitI
und jetzt mache ich die flügel fest	spkr2	1	ContI
mhm	spkr1	1	InitI
mhm	spkr2	5	AckR
jetzt nimmst du zwei würfel	spkr1	1	InitI
#also der vordere flügelteil ist jetzt immer noch unbefestigt	spkr2	1	InitI
#ist immer noch lose genau	spkr1	1	InitI
#mhm	spkr2	5	AckR
du nimmst zwei würfel	spkr1	1	InitI
den ersten	spkr1	1	ContI
auf das unbef	spkr1	1	ContI
steckst du auf das unbefestigte oder drehst den fest	spkr1	1	RepI
also da	spkr1	1	ContI
also mit einer gewindeöffnung ja	spkr2	1	InitI
na	spkr1	1	InitI
hat ja auf jeder seite ein gewindeöffnung	spkr1	1	ContI
nee 	spkr2	1	InitI
hat auch	spkr2	1	ContI
welche ohne	spkr2	1	ContI
aber ist egal	spkr2	1	ContI
ja	spkr2	1	RepI
ja	spkr1	1	InitI
stimmt	spkr1	1	ContI
sehe ich auch gerade	spkr1	1	ContI
ja 	spkr1	1	ContI
klar mit der gewindeöffnung sollst dues halt festschrauben	spkr1	1	ContI
kannst	spkr1	1	ContI
hast du ihn jetzt auf der orangen	spkr1	1	ContI
schraube auf der achtkantigen festgedreht ne	spkr1	1	ReqAckI
ja	spkr2	1	InitI
und jetzt nimmst du den zweiten würfel äh legst den da	spkr1	1	InitI
stellst den da unter und mit der grünen schraube ziehst du die alle zusammen	spkr1	1	ContI
wo stelle ich den runter 	spkr2	1	InitI
unter den ersten würfel den du jetzt	spkr1	1	InitI
ja	spkr2	5	AckR
gerade festgedreht hast	spkr1	1	InitI
mhm	spkr2	5	AckR
und den ziehst du mit der grünen schraube jetzt also die beiden würfel	spkr1	1	InitI
zusammen	spkr1	1	ContI
mhm	spkr2	5	AckR
jetzt hast du noch die	spkr1	1	InitI
das ist ein bisschen locker bei dir auch	spkr2	1	InitI
ja	spkr1	1	InitI
bei mir auch	spkr1	1	ContI
gut	spkr2	5	AckR
ist ein bisschen	spkr1	1	InitI
ja	spkr1	1	ContI
ein bisschen spiel	spkr1	1	ContI
und jetzt hast du noch eine ähm	spkr1	1	InitI
die rote schraube und den würfel	spkr1	1	ContI
mhm	spkr2	1	InitI
und die machst du einfach	spkr1	1	InitI
am überstehenden ende fest	spkr1	1	ContI
das heisst die schraube die rote f	spkr1	1	ContI
schraube kommt nach oben	spkr1	1	RepI
und unten drehst du den würfel an	spkr1	1	ContI
das g	spkr1	1	ContI
#ähm	spkr1	1	ContI
gibt nachher den propeller	spkr1	1	RepI
kannst du jetzt schon ungefähr sehen ne	spkr1	1	InitI
also	spkr1	1	InitI
wir haben zwei	spkr1	1	ContI
ja 	spkr1	1	ContI
da hapert es bei mir auch mit der	spkr1	1	ContI
fingergeschicklichkeit ne	spkr1	1	ContI
das gewinde ist zu kurz	spkr2	1	InitI
oder	spkr2	1	ContI
das	spkr2	1	ContI
geht ging das bei dir	spkr2	1	RepI
ja	spkr1	1	InitI
#ähm	spkr1	1	ContI
das ist eine kurze rote schraube	spkr2	1	InitI
und	spkr2	1	ContI
ja	spkr1	1	InitI
die soll jetzt	spkr2	1	InitI
den würfel unterhalb	spkr2	1	ContI
des rumpfes befestigen	spkr2	1	ContI
#ähm	spkr1	1	InitI
also vorne	spkr2	1	InitI
ja	spkr1	1	InitI
hast du wieviel plättchen hast du da übereinander also von diesen hölz	spkr1	1	ContI
hölzern den mit den löchern	spkr1	1	RepI
zwei	spkr2	1	InitI
zwei	spkr2	1	ContI
zwei	spkr1	1	InitI
ebenen	spkr2	1	InitI
zwei ebenen	spkr1	5	AckR
ja	spkr1	1	InitI
dann haben wir da leider den fehler	spkr1	1	ContI
und zwar scheisse	spkr1	1	ContI
#ähm	spkr1	1	ContI
und zwar hast du	spkr1	1	ContI
äh den	spkr1	1	ContI
unter die drei löcher gelegt ne	spkr1	1	ContI
also so dass es	spkr1	1	ContI
so dass es jetzt überhaupt nicht überguckt so dass jetzt nur ein loch überguckt f	spkr1	1	ContI
bei den flügeln bei den langen flügeln	spkr1	1	ContI
ein loch über	spkr2	1	InitI
drei	spkr2	1	ContI
auf jeder seite	spkr2	1	ContI
ja	spkr1	5	AckR
aber nach vorne	spkr1	1	InitI
nach vorne ist ein loch noch frei ja	spkr2	1	InitI
genau	spkr1	1	InitI
und das ist der	spkr1	1	ContI
der fehler	spkr1	1	ContI
ach so	spkr2	5	AckR
ja	spkr1	5	AckI
das ist jetzt ganz furchtbar weil jetzt müssen die würfel wieder ab	spkr1	1	InitI
äh und die	spkr1	1	ContI
schraube die so viel probleme macht	spkr1	1	ContI
weil es es darf nur auf diese	spkr1	1	ContI
aber den zweiten flügelteil montiere ich nicht ab	spkr2	1	InitI
m-m	spkr1	2	ReqRepR
also das	spkr2	1	RepI
die mit der runden schraube befestigt ist	spkr2	1	RepI
nee 	spkr1	1	InitI
den musst du nicht	spkr1	1	ContI
d	spkr1	1	ContI
da musst du halt den soweit abmontieren dass du ähm das plättchen mit den drei löchern	spkr1	1	RepI
wieder abmachen kannst	spkr1	1	ContI
und einen nach vorne setzen kannst	spkr1	1	ContI
also ich montiere jetzt die beiden	spkr2	1	InitI
würfel erstmal ab	spkr2	1	ContI
ja	spkr1	5	AckR
die	spkr2	1	InitI
untereinander	spkr2	1	ContI
ja	spkr1	1	InitI
befestigt sind	spkr2	1	InitI
aber der arbeitsschritt ist ansonsten richtig also den kannst du gleich so wieder wiederholen	spkr1	1	InitI
so und jetzt	spkr1	1	ContI
ich mache jetzt den ganzen flügel ab	spkr2	1	InitI
oder nur die würfel 	spkr2	1	ContI
und dann ist der flü	spkr2	1	ContI
äh der flügel	spkr2	1	ContI
nicht	spkr2	1	ContI
nur die w	spkr1	1	InitI
nur erstmal die w	spkr1	1	RepI
erstmal die würfel	spkr1	1	RepI
und dann kannst du ja	spkr1	1	ContI
#ähm	spkr1	1	ContI
das teil also mit den drei löchern was nach	spkr1	1	ContI
ähm was jetzt unter	spkr1	1	ContI
dem ganzen rumpf liegt	spkr1	1	ContI
das plätch	spkr1	1	ContI
ja	spkr2	5	AckR
die schiene	spkr2	1	InitI
#ähm	spkr1	1	InitI
die soll	spkr1	1	InitI
weiter nach vorne die soll mit einem loch überschauen	spkr1	1	ContI
nach unten	spkr1	1	ContI
so dass dann am ende zwei löcher frei sind	spkr2	1	InitI
dass nach	spkr1	1	InitI
ja	spkr1	1	RepI
vorne zwei löcher frei sind	spkr2	1	InitI
ja	spkr1	1	InitI
insgesamt zwei löcher	spkr1	1	ContI
und das war	spkr1	1	ContI
das war halt der fehler	spkr1	1	ContI
hatte ich aber auch erst also	spkr1	1	ContI
bei mir	spkr1	1	ContI
ich hatte auch erst	spkr1	1	ContI
#ähm	spkr1	1	ContI
dass es deckungsgleich war	spkr1	1	ContI
so jetzt ist der flügel der mit der runden schraube befestigt ist	spkr2	1	InitI
nur an einer schiene befestigt	spkr2	1	ContI
oder	spkr2	1	ReqAckI
ja	spkr1	1	InitI
mhm	spkr2	5	AckR
das ist richtig	spkr1	5	AckI
mit was war jetzt nochmal dieser achtkantschraube bef	spkr2	1	InitI
ach mit den würfeln	spkr2	1	RepI
ja	spkr1	1	InitI
du hast die runde schraube wieder fest	spkr1	1	InitI
m	spkr2	1	InitI
ja	spkr2	1	ContI
und jetzt bei achtkantschraube fängt jetzt das plättchen äh das untere an mit den drei löcher ne	spkr1	1	InitI
ja	spkr2	1	InitI
genau da kommen jetzt wieder	spkr1	1	InitI
ein würfel drauf 	spkr1	1	ContI
und dann noch ein würfel  	spkr1	1	ContI
womit du äh	spkr1	1	ContI
die mit der grünen schraube anziehst	spkr1	1	ContI
mhm	spkr2	5	AckR
#ähm 	spkr1	1	InitI
und jetzt schaut der	spkr1	1	ContI
schaut das ja einen einen über ne	spkr1	1	ContI
zwei	spkr2	1	InitI
im ganzen	spkr2	1	ContI
ja	spkr1	1	InitI
aber	spkr1	1	ContI
d	spkr1	1	ContI
jetzt kannst du nämlich däh den würfel nehmen und die rote schraube 	spkr1	1	RepI
und jetzt passt das weil	spkr1	1	ContI
und	spkr2	1	InitI
wo mache ich den hin 	spkr2	1	ContI
den würfel	spkr2	1	ContI
äh du nimmst die rote schraube machst die jetzt auf den	spkr1	1	InitI
der der ist der einzige loch was übersteht 	spkr1	1	ContI
also das letzte loch	spkr1	1	ContI
mhm	spkr2	5	AckR
auf der einen schiene nur	spkr2	1	InitI
ja	spkr1	1	InitI
und zwar	spkr1	1	ContI
mhm	spkr2	5	AckR
von oben die rote schraube von unten den	spkr1	1	InitI
würfel	spkr1	1	ContI
ja	spkr2	5	AckR
ja 	spkr1	1	InitI
das ähm jetzt kommt der nächs	spkr1	1	ContI
die letzte abteilung	spkr1	1	ContI
bei der letzten abteilung wollen wir halt	spkr1	1	ContI
den propeller und die räder dranmachen	spkr1	1	ContI
#ähm	spkr1	1	ContI
fangen wir	spkr1	1	ContI
mit den rädern an	spkr1	1	ContI
du hast diese gummireifen	spkr1	1	ContI
mhm	spkr2	1	InitI
in die gummireifen kommen diese roten äh ringe rein	spkr1	1	InitI
kann man so reinp	spkr1	1	ContI
äh stecken	spkr1	1	RepI
hast du	spkr1	1	ReqAckI
ja	spkr2	1	InitI
dann kannst du ähm diese plastikteile	spkr1	1	InitI
d	spkr1	1	ContI
ähm die weissen	spkr1	1	RepI
mhm	spkr2	5	AckR
die kannst du da n	spkr1	1	InitI
da	spkr1	1	ContI
auch reinstecken also in die mitte ins loch	spkr1	1	ContI
mhm	spkr2	5	AckR
jetzt nimmst du	spkr1	1	InitI
ähm eine blaue schraube	spkr1	1	ContI
oder kannst auch	spkr1	1	RepI
bei	spkr1	1	RepI
in jedes loch kommt eine blaue schraube	spkr1	1	RepI
und jetzt hast du noch die die lila ähm	spkr1	1	ContI
die lila ringe	spkr1	1	ContI
ja	spkr2	1	InitI
die steckst du äh da rauf also	spkr1	1	InitI
auf einer seite ist die blaue schraube	spkr1	1	ContI
und auf einer anderen	spkr1	1	ContI
mhm	spkr2	5	AckR
seite die lila ringe	spkr1	1	InitI
und ähm jetzt müsstest du dich schon auf die	spkr1	1	ContI
auf den untersten würfel sch	spkr1	1	ContI
äh schrauben können also da	spkr1	1	ContI
wo	spkr1	1	ContI
zwei würfel untereinander sind	spkr1	1	ContI
und da st	spkr1	1	ContI
schraubst du es auf den unteren	spkr1	1	RepI
halt so dass die räder	spkr1	1	ContI
fahren	spkr1	1	ContI
mhm	spkr2	5	AckR
hast du	spkr1	1	InitI
mhm	spkr2	1	InitI
und jetzt hast du noch zwei plättchen a drei löcher	spkr1	1	InitI
ja	spkr2	1	InitI
die nimmst du legst die über kreuz	spkr1	1	InitI
so dass das loch in der mitte deckungsgleich ist	spkr1	1	ContI
mhm	spkr2	5	AckR
äh nimmst die gelbe schraube	spkr1	1	InitI
und schraubst den an den vordersten würfel	spkr1	1	ContI
zum propeller	spkr1	1	ContI
so und ich hoffe das sieht jetzt aus wie ein flugzeug	spkr1	1	ContI
ja	spkr2	1	InitI
doch	spkr2	1	ContI
