ja 	spkr1 	1	InitI
alles klar	spkr1	1	ContI
ja 	spkr1	1	ContI
also ziel ist es	spkr1	1	InitI
ein flugzeug zu bauen	spkr1	1	ContI
mhm	spkr2	5	AckR
m	spkr1	5	AckI
und zwar	spkr1	1	InitI
#ja 	spkr1	1	ContI
#dann besteht es aus einer längsachse	spkr1	
#und hinten dann	spkr1
#kann ich auch so mit händen alles	spkr1
eine längsachse und drauf ist im prinzip alles drauf montiert	spkr1	2	ContI
mhm	spkr2	5	AckR
und denn ja würde sagen wir fangen am besten mal mit der längsachse an	spkr1	1	InitI
ja	spkr2	1	InitI
du hast ähm ein soein stäbchen mit fünf löchern	spkr1	1	InitI
ja 	spkr2	1	InitI
zwei	spkr2	1	RepI
zwei gut	spkr1	5	AckR
daran	spkr1	1	InitI
#ähm	spkr1
musst du mit den schrauben befestigen zwei dreierteile	spkr1	1	ContI
du hast auch mit drei löchern ne	spkr1	1	InitI
mit welchen schrauben	spkr2	1	InitI
#ähm	spkr1
fangen wir mit den gelben an	spkr1	1	InitI
ja	spkr2	1	InitI
lorenz baufix	spkr1	1	InitI
ja	spkr2	1	InitI
ja 	spkr1	1	InitI
ähm lässt du	spkr1	1	ContI
dir	spkr1	1	ContI
den dreier zwei überlappen	spkr1	1	ContI
mhm ganz vorne ja	spkr2	1	InitI
#ähm	spkr1
ist eigentlich egal hinten oder vorne	spkr1	1	InitI
ist ist ja noch nicht	spkr1	1	ContI
aber am rand	spkr2	1	InitI
aber nach aussen natürlich klar	spkr1	1	InitI
mhm  und	spkr2	5	AckR
wie schraube ich das fest 	spkr2	1	InitI
es sind zwei	spkr1	1	InitI
da	spkr1	1	ContI
und dann schraubst du es mit dem orangenen	spkr1	1	ContI
trapez	spkr1	1	ContI
schraube fest da oder mit den trapezmuttern die so trapezförmig sind orange	spkr1	1	ContI
ja	spkr2	5	AckR
und den setzt du jetzt also im	spkr1	1	InitI
auf die äusserste überlappungs	spkr1	1	RepI
auf das äusserste überlappungsloch also ähm	spkr1	1	RepI
ne also auf dem	spkr1	1	ContI
ja	spkr2	5	AckR
dass ich vier runter und zwei rechts drüberschwe	spkr2	1	InitI
stehen habe zum beispiel	spkr2	1	RepI
was	spkr1	2	ReqRepR
vier runter	spkr2	1	RepI
also jedenfalls ist nach hinten	spkr1	1	InitI
eben st ähm	spkr1	1	ContI
überlappt der dreier den fünfer nur um einen ne	spkr1	1	RepI
also was heisst überlappen sich um zwei aber es steht hinten nur ein über	spkr1	1	RepI
ein loch steht über vom dreier	spkr1	1	ContI
hinter dem fünfer	spkr1	1	ContI
du willst es längs hintereinander machen oder im rechten winkel	spkr2	1	InitI
längs hinter längs hintereinander	spkr1	1	InitI
das wird jetzt die längsachse erstmal	spkr1	1	ContI
also	spkr2	1	InitI
#es	spkr1
du willst den fünfer verlängern oder was	spkr2	1	ContI
ja 	spkr1	1	InitI
genau	spkr1	1	ContI
der wird jetzt verlängert einmal nach hinten einmal nach vorne	spkr1	1	ContI
hä	spkr2	1	InitI
was	spkr2	1	InitI
ja 	spkr1	1	InitI
erst der wird erstmal verlängert	spkr1	1	ContI
der fünfer wird verlängert	spkr1	1	RepI
mit dem dreier	spkr1	1	ContI
mit einem	spkr2	2	ReqRepR
mit ei	spkr1	1	RepI
erstmal mit einem dreier	spkr1	1	ContI
das heisst ich schraube sie nur	spkr2	1	InitI
übereinander	spkr2	1	ContI
du schraubst sie übereinander genau	spkr1	1	InitI
zur verlängerung so dass es um einen länger wird	spkr2	1	InitI
es wird um einen länger genau ja damit es um einen länger wird	spkr1	1	InitI
ich dachte du wolltest es im rechten winkel ansetzen oder so was	spkr2	1	InitI
nee 	spkr1	1	InitI
nee nee wir bauen jetzt im prinzip erstmal das hinterteil des flugzeuges also	spkr1	1	ContI
toll	spkr2	5	AckR
den hinteren teil	spkr1	1	InitI
das sagt mir gar nichts	spkr2	1	InitI
fangen wir erstmal mit an und ähm	spkr1	1	InitI
also	spkr1	1	ContI
auf welcher seite hast du jetzt du hast du jetzt links ähm	spkr1	1	InitI
baust du jetzt links an oder rechts	spkr1	1	ContI
je nachdem wie ich drehe 	spkr2	1	InitI
wie soll ich es denn halten 	spkr2	1	InitI
baue es mal links an	spkr1	1	InitI
ja	spkr2	1	InitI
also drehe es mal so dass es links ist	spkr1	1	InitI
ja	spkr2	1	InitI
und dass es ähm	spkr1	1	InitI
der dreier unter dem fünfer ist	spkr1	1	ContI
ja	spkr1	1	InitI
ja	spkr2	5	AckR
und denn hast du jetzt also ähm	spkr1	1	InitI
an der am weitesten rechts liegenden überlappungsstelle hast du jetzt lorenz baufix eingeschraubt	spkr1	1	InitI
am weitesten rechts was	spkr2	2	ReqRepR
liegende an der am weitesten rechts	spkr1	1	RepI
ich dachte ich habe es jetzt nach links gedreht	spkr2	1	InitI
wie habe ich es denn dann rechts 	spkr2	1	ContI
ja 	spkr1	1	InitI
du musst es ja also ganz ganz links ähm hast du ja erstmal überla	spkr1	1	ContI
lappt es ja ist es ja drüber	spkr1	1	RepI
ja	spkr2	1	InitI
ähm la	spkr1	1	InitI
ähm ähm steht es drüber	spkr1	1	ContI
ja	spkr2	1	InitI
ist es ja verlängerung und denn hast du ja zwei ähm zwei löcher 	spkr1	1	InitI
wo das zusammenschrauben kannst	spkr1	1	InitI
ach so ich soll die schraube ganz rechts machen	spkr2	1	InitI
und das	spkr1	1	InitI
rechte von den beiden löchern wird mit einem lorenz baufix zugeschraubt	spkr1	1	ContI
das ist egal ob die die lorenz baufix oben oder unten ist	spkr2	1	InitI
ähm mache die mal nach oben dass oben das gelbe ist und unten die orange mutter	spkr1	1	InitI
mhm	spkr2	5	AckR
und es ist auch egal welcher von den beiden oben oder unten ist von den loch	spkr2	1	InitI
lochteilen	spkr2	1	RepI
von den längeren ne	spkr2	1	ContI
bitte	spkr1	2	ReqRepR
von diesen	spkr2	1	RepI
diesen langen stangen	spkr2	1	RepI
ja 	spkr1	1	InitI
dass dass der dreier unten ist	spkr1	1	ContI
ist der dreier unten oder	spkr2	1	InitI
der dreier soll unten sein	spkr1	1	InitI
ach so	spkr2	5	AckR
gut	spkr2	1	InitI
okay	spkr2	1	ContI
ähm jetzt das gleiche nochmal für da	spkr1	1	InitI
für die andere gelbe schraube	spkr1	1	RepI
ja 	spkr2	1	InitI
genau so	spkr2	1	ContI
m m genauso mit ähm ja auch wieder mit einer orangenen mutter	spkr1	1	InitI
ja 	spkr2	1	InitI
und 	spkr2	1	ContI
wo 	spkr2	1	ContI
ist ja nur noch eine so eine nee schr	spkr1	1	InitI
die die schlitzschraube mit der also die andere schlitzschraube jetzt nicht	spkr1	1	ContI
die mit dem baufix sondern eine schlitzschraube musst du jetzt nehmen	spkr1	1	ContI
auch gelb	spkr2	1	InitI
auch gelb gelbe schlitzschraube rund	spkr1	1	InitI
aber jetzt ist das teil praktisch sieben dinger lang ja	spkr2	1	InitI
ist das richtig	spkr2	1	ReqAckI
m-m es steht ja nach hinten nur einen über	spkr1	1	InitI
eins zwei drei vier fünf sieben	spkr2	1	InitI
ja 	spkr2	1	ContI
aber du hast erst einen fünfer und dann	spkr2	1	InitI
vor hinten und vorne jeweils eine dann kommst du auf sieben	spkr2	1	ContI
#ach so hast du hinten und vorne schon jeweils angebaut	spkr1	1	InitI
#ja 	spkr2	1	InitI
#ja	spkr2	1	ContI
nee	spkr1	1	InitI
hast du doch gerade gesagt oder	spkr2	1	InitI
nee 	spkr1	1	InitI
nee ich meinte ich bin jetzt immer noch hinten bei dem hinterteil sind wir jetzt	spkr1	1	ContI
wir bauen	spkr1	1	ContI
ach so	spkr2	5	AckR
noch immer das hinterteil	spkr1	1	InitI
und beim hinterteil	spkr1	1	ContI
sollst du jetzt die den den zwei den linken von den überla	spkr1	1	ContI
beiden überlappungsteilen	spkr1	1	RepI
sollst du jetzt mit der gelben schraube	spkr1	1	ContI
mit dem schlitz	spkr1	1	ContI
die rund ist	spkr1	1	ContI
verschrauben	spkr1	1	ContI
der ganz äussere	spkr2	1	InitI
ja 	spkr1	1	InitI
der ganz äussere	spkr1	1	ContI
und was schraube ich da dran	spkr2	1	InitI
ja 	spkr1	1	InitI
den die die ich dir eben erzählt habe	spkr1	1	ContI
ja 	spkr2	1	InitI
ich habe das rechts angebaut also okay nochmal von vorne	spkr2	1	ContI
ganz von vorne	spkr1	1	InitI
nein also	spkr2	1	InitI
mhm	spkr1	5	AckR
ich habe jetzt das sechs dinger lang	spkr2	1	InitI
ja 	spkr1	1	InitI
du hast jetzt sechs dinger lang	spkr1	1	ContI
ja	spkr2	1	InitI
schön	spkr1	1	InitI
und dann	spkr2	1	InitI
dann ähm	spkr1	1	InitI
hast du ja das einmal verschraubt schon	spkr1	1	InitI
ja	spkr2	1	InitI
und dann verschraubst du jetzt nochmal  das sind ja zwei ähm zwei stellen 	spkr1	1	InitI
wo du es verschrauben kannst  ja 	spkr1	1	InitI
ja	spkr2	5	AckR
ja 	spkr1	5	AckI
und damit da von die zweite stelle verschraubst du jetzt mit der gelben runden schraube mit dem schlitz	spkr1	1	InitI
m was baue ich da dran	spkr2	1	InitI
gar nichts es wird nur erstmal zusammengeschraubt	spkr1	1	InitI
damit es hält damit es zusammenhält im prinzip	spkr1	1	InitI
ist doch schon zusammen	spkr2	1	InitI
ja 	spkr1	1	InitI
aber du kannst es ja zweimal zusammensch	spkr1	1	ContI
an zwei stellen kannst es ja zweimal zusammenschrauben	spkr1	1	RepI
also ich mache einfach zwei schrauben direkt nebeneinander	spkr2	1	InitI
genau	spkr1	1	InitI
wobei die mit dem schli	spkr2	1	InitI
schlitz auf der einen und d	spkr2	1	RepI
du darfst es mir nicht zeigen	spkr1	1	InitI
ah ja	spkr2	1	InitI
#ähm	spkr1
ja 	spkr1	1	InitI
aber ähm	spkr1	1	ContI
genau du musst ähm du verschraubst es zweimal genau	spkr1	1	ContI
rein wegen der sicherheit und der festigkeit	spkr1	1	ContI
scheiss flugzeug	spkr2	1	InitI
ha soll ja auch fliegen	spkr1	1	InitI
also mit solch einem würde ich sowieso nicht fliegen na gut okay	spkr2	1	InitI
so jetzt	spkr1	1	InitI
hast du geschafft	spkr1	1	ContI
ja	spkr2	1	InitI
oh bin ja gespannt	spkr1	1	InitI
sechs teile lang ja	spkr2	1	InitI
sechs teile ist es jetzt lang genau	spkr1	1	InitI
ja	spkr2	1	InitI
und es ist zweimal verschraubt	spkr1	1	InitI
ja	spkr2	1	InitI
rechts mit der baufixschraube und	spkr1	1	InitI
ja	spkr2	1	InitI
links ähm ganz also ähm	spkr1	1	InitI
wir können es mal eigentlich durchnumerieren	spkr1	1	InitI
von	spkr1	1	ContI
äh rechts nach links ja also ganz re	spkr1	1	ContI
ganz rechts ist eins und	spkr1	1	ContI
ja	spkr2	5	AckR
es überlappt sich an den stellen	spkr1	1	InitI
vier und fünf	spkr1	1	ContI
ja	spkr2	1	InitI
und stelle sechs steht über	spkr1	1	InitI
ja 	spkr2	1	InitI
genau	spkr2	1	ContI
okay	spkr1	5	AckR
und vier und fünf sind die schrauben	spkr2	1	InitI
vier und fünf sind die schrauben genau	spkr1	1	InitI
gut	spkr2	5	AckR
vier ist die baufixschraube und	spkr1	1	InitI
fünf	spkr1	1	ContI
okay	spkr2	5	AckR
ist die schlitzschraube okay	spkr1	1	InitI
an stelle sechs bauen wir jetzt hinten ähm	spkr1	1	ContI
so ein	spkr1	1	InitI
#oh gott	spkr1	1	ContI
so eine art würfel hast du da ja auch liegen mit löchern	spkr1	1	ContI
ja	spkr2	5	AckR
nimmst du den roten würfel	spkr1	1	InitI
ja	spkr2	1	InitI
legst ihn auf stelle sechs drauf	spkr1	1	InitI
von oben neben die schrauben ja	spkr2	1	InitI
von oben drauf neben die schrauben genau	spkr1	1	InitI
ja	spkr2	5	AckR
legst es von oben drauf und verschraubst es von unten	spkr1	1	InitI
mit einer	spkr1	1	ContI
ganz normalen	spkr1	1	ContI
sechseckigen	spkr1	1	ContI
roten	spkr1	1	ContI
schraube	spkr1	1	ContI
passend zum würfel	spkr2	1	InitI
genau	spkr1	1	InitI
ja 	spkr2	1	InitI
okay	spkr2	1	ContI
ähm jetzt ähm gehst du suchst du dir einen fünfer fünfloch	spkr1	1	InitI
ja	spkr2	5	AckR
holst es raus	spkr1	1	InitI
den anderen	spkr2	1	InitI
schraubst es oben drauf	spkr1	1	InitI
mit der anderen roten schraube aber dieser ist jetzt auch wieder rund	spkr1	1	ContI
und hat einen schlitz	spkr1	1	ContI
mhm	spkr2	5	AckR
ja	spkr2	1	InitI
so	spkr1	5	AckR
die weiteren	spkr1	1	InitI
jetzt steht der rechts einen über der untere ne	spkr2	1	InitI
ist das richtig	spkr2	1	ReqAckI
bitte	spkr1	2	ReqRepR
oh  ich habe dir nicht gesagt 	spkr1	1	InitI
wie du es drauf schrauben sollst  entschuldigung	spkr1	1	ContI
#m	spkr1
in der mitte ne	spkr1	1	InitI
in der mitte drauf schrauben und es soll äh recht es soll praktisch eine tragfläche sein für das flugzeug die hintere tragfläche für das flugzeug soll das werden	spkr1	1	InitI
also im rechten winkel dazu	spkr2	1	InitI
im rechten winkel zur längsachse soll das jetzt stehen	spkr1	1	InitI
ja	spkr2	1	InitI
okay	spkr2	1	ContI
oh je weiter ähm	spkr1	1	InitI
das ist j	spkr1	1	ContI
es ist jetzt hinten bei dir ziemlich fertig ne	spkr1	1	RepI
ja	spkr2	1	InitI
würde ich mal sagen	spkr2	1	ContI
okay	spkr1	5	AckR
ich weiss ja nicht 	spkr2	1	InitI
wie es aussehen soll 	spkr2	1	ContI
also jetzt zum vorderen teil	spkr1	1	InitI
da legst du genau wie hinten	spkr1	1	ContI
ähm legst du ein dreierholz drunter	spkr1	1	ContI
auch	spkr2	1	InitI
längs ja	spkr2	1	InitI
auch längs ja	spkr1	1	InitI
es gehört jetzt noch alle	spkr1	1	InitI
auch dass er einen übersteht	spkr2	1	InitI
auch dass er einen übersteht also denn überlappung ist an den stellen eins und zwo dann ja	spkr1	1	InitI
mhm	spkr2	5	AckR
und wer 	spkr2	1	InitI
wo kommen welche schrauben hin 	spkr2	1	RepI
#ähm	spkr1	
du nimmst jetzt die	spkr1	1	InitI
orange	spkr1	1	ContI
runde	spkr1	1	ContI
längs äh schritz	spkr1	1	ContI
schlitzschraube	spkr1	1	RepI
ja	spkr2	5	AckR
moment ähm es fehlt aber noch hast du dies siebenerholz musst du noch oben drauf legen	spkr1	1	InitI
also legst den dreier darunter	spkr1	1	ContI
mhm	spkr2	5	AckR
und legst den siebener rechtwinkelig drauf also als tragfläche das wird jetzt auch wieder eine tragfläche	spkr1	1	InitI
auf welche	spkr2	1	InitI
#ähm	spkr2
auf ähm	spkr1	1	InitI
auf d	spkr1	1	InitI
auf die zwei auf stelle zwo	spkr1	1	RepI
passt denn da überhaupt so eine schraube dann rein	spkr2	1	InitI
ähä das geht	spkr1	1	InitI
die orangene schlitzschraube da	spkr2	1	InitI
die orange runde schraube ja	spkr1	1	InitI
und da packst du auch wieder eine orangene mutter drunter	spkr1	1	ContI
das heisst also ähm du hast jetzt drei hölzer verschraubt ne	spkr1	1	InitI
ja	spkr2	1	InitI
das dr	spkr1	1	InitI
ähm das dreier ist in längs	spkr1	1	ContI
richtung und	spkr1	1	ContI
das siebener ist	spkr1	1	ContI
quer	spkr1	1	ContI
m neunzig grad ja	spkr2	1	InitI
ähä	spkr1	5	AckR
wobei das	spkr2	1	InitI
dreier unten ist und das	spkr2	1	ContI
das	spkr2	1	ContI
ja 	spkr1	1	InitI
das siebener	spkr1	1	ContI
neunzig grad oben drüber ja	spkr2	1	InitI
der siebener ist oben genau	spkr1	1	InitI
mhm	spkr2	5	AckR
so jetzt wird es etwas interessanter	spkr1	1	InitI
komme ich jetzt zur stelle eins	spkr1	1	ContI
ja	spkr2	5	AckR
oder machen wir die erstmal nicht	spkr1	1	InitI
nee 	spkr1	1	InitI
wir machen erstmal	spkr1	1	InitI
stelle	spkr1	1	ContI
minus 1	spkr1	1	ContI
ja	spkr1	1	ReqAckI
mhm	spkr2	5	AckR
und zwar nimmst du da die rote sechseckige schraube	spkr1	1	InitI
ja	spkr2	5	AckR
legst unter	spkr1	1	InitI
also ganz ähm äh bei minus eins legst du unten drunter den blauen würfel	spkr1	1	InitI
ja	spkr2	5	AckR
das bremst ja so ein doofes flugzeug	spkr2	1	InitI
na ja das kriegt dann noch räder	spkr1	1	InitI
ach so	spkr2	5	AckR
und das verschraube ich jetzt ne	spkr2	1	InitI
also jetzt das hier wird praktisch nachher der propeller drangebaut und ähm	spkr1	1	InitI
also ja jetzt ähm verschraubst du es	spkr1	1	ContI
die rote schraube oben	spkr2	1	InitI
das	spkr2	1	ContI
rote schraube ja verschraubst du an der stelle	spkr1	1	InitI
null a	spkr1	1	ContI
minus eins	spkr1	1	RepI
ja	spkr2	5	AckR
oben ist oben und äh	spkr1	1	InitI
mhm	spkr2	5	AckR
drunter ist das blaue t	spkr1	1	InitI
also der blaue	spkr1	1	RepI
ja	spkr2	5	AckR
würfel	spkr1	1	InitI
mhm	spkr2	5	AckR
musst es ähm am besten so drehen	spkr1	1	InitI
dass du vorne	spkr1	1	ContI
dran also vorne davor kommt jetzt der propeller ist klar ne	spkr1	1	RepI
an	spkr1	1	RepI
ja	spkr2	1	InitI
die längsachse an	spkr1	1	InitI
min	spkr1	1	ContI
stelle minus eins	spkr1	1	RepI
ja	spkr2	5	AckR
und an den blauen würfel	spkr1	1	InitI
wird jetzt der propeller drangeschraubt musst du also so drehen dass du vorne	spkr1	1	ContI
ja 	spkr2	1	InitI
schon klar	spkr2	1	ContI
vor noch ein äh eine gewinde hast	spkr1	1	InitI
ja	spkr2	5	AckR
dann nimmst du	spkr1	1	InitI
jetzt ähm wieder zwei dreierhölzer	spkr1	1	ContI
mhm	spkr2	5	AckR
eine lorenz baufix	spkr1	1	InitI
gelbschraube	spkr1	1	ContI
aha	spkr2	5	AckR
oder eine gelbe lorenz baufixschraube	spkr1	1	InitI
wie auch immer 	spkr2	1	InitI
und schraubst ähm über ähm kreuzt also diese dreierhölzer	spkr1	1	InitI
also wie	spkr1	1	ContI
mhm	spkr2	5	AckR
propeller eben aussehen ne	spkr1	1	InitI
das habe ich mir schon gedacht	spkr2	1	InitI
guckst kein fernsehen	spkr1	1	InitI
und schraubst es vorne vor	spkr1	1	InitI
nee 	spkr2	1	InitI
hinten	spkr2	1	ContI
hinten passt es auch gar nicht stimmt	spkr1	1	InitI
ja	spkr2	1	InitI
so	spkr1	1	InitI
jetzt wird es ganz interessant	spkr1	1	ContI
das hast du jetzt auch schon	spkr1	1	ContI
ja	spkr2	1	InitI
so jetzt ähm an der stelle eins	spkr1	1	InitI
müssen wir jetzt	spkr1	1	ContI
ach nee ähm	spkr1	1	ContI
nee 	spkr1	6	CanI
fangen wir erstmal an	spkr1	1	InitI
du hast da solche roten	spkr1	1	ContI
runden teile	spkr1	1	ContI
ja	spkr2	1	InitI
flach 	spkr1	1	InitI
in das gummi rein tun ne 	spkr2	1	InitI
und genau da kommt das gummi da rumherum das sollen nämlich die räder werden	spkr1	1	InitI
habe ich mir schon gedacht	spkr2	1	InitI
das könntest du schon mal machen	spkr1	1	InitI
und dann die weissen teile rein ne	spkr2	1	InitI
ah ja das das ähm ja das sind die lager nachher dafür aber ähm	spkr1	1	InitI
ja	spkr2	5	AckR
weil das also das kannst du immer noch machen	spkr1	1	InitI
so	spkr1	1	InitI
#ähm	spkr1
jetzt musst du an der stelle eins	spkr1	1	ContI
mhm	spkr2	5	AckR
#äh	spkr1
auch den letz	spkr1	1	InitI
den anderen siebener drauflegen wieder	spkr1	1	ContI
es wird also praktisch eine	spkr1	1	ContI
doppelte tragfläche	spkr1	1	ContI
und du legst unten drunter den	spkr1	1	ContI
grünen grünen würfel	spkr1	1	ContI
mhm	spkr2	5	AckR
und verschraubst jetzt erstmal an der stelle eins	spkr1	1	InitI
die siebenertragfläche	spkr1	1	ContI
und die beiden anderen äh hölzer den dreierfünfer	spkr1	1	ContI
von unten drunter	spkr2	1	InitI
und den würfel drunter	spkr1	1	InitI
mit der grünen schraube oder mit welcher	spkr2	1	InitI
mit der	spkr1	1	InitI
orangenen	spkr1	1	ContI
sechskantschraube	spkr1	1	ContI
ach von oben dann	spkr2	1	InitI
von oben ja wird von oben von oben geschraubt ja ja	spkr1	1	InitI
habe überlegt das passt ja nicht	spkr2	1	InitI
ja 	spkr1	1	InitI
ja die grüne die kommt auch noch	spkr1	1	ContI
hinter einer	spkr1	1	ContI
nachher	spkr1	1	RepI
orange war das jetzt ne	spkr2	1	InitI
ja 	spkr1	1	InitI
mit der orangenen sechskant	spkr1	1	ContI
und andere dürftest du auch nicht mehr überhaben eigentlich	spkr1	1	ContI
noch eine blaue	spkr2	1	InitI
sechskant und eine grüne sechskant	spkr2	1	ContI
ach ja ja gut	spkr1	5	AckR
ja 	spkr1	1	InitI
aber keine orange andere jedenfalls	spkr1	1	ContI
nee	spkr2	1	InitI
okay	spkr1	5	AckR
mhm	spkr2	5	AckI
jetzt legst du	spkr1	1	InitI
unter die grüne	spkr1	1	ContI
über unter den grünen würfel	spkr1	1	RepI
legst du einen gelben den gelben würfel	spkr1	1	ContI
unter den grünen	spkr2	1	InitI
noch einen gelben	spkr2	1	ContI
legst du den gelben noch ja	spkr1	1	InitI
ja	spkr2	5	AckR
und ähm legst es so dass du es	spkr1	1	InitI
mit dem mit der grünen sechskantschraube	spkr1	1	ContI
verschrauben kannst so dass der gelbe und der grüne zusammenhalten	spkr1	1	ContI
von unten	spkr1	1	ContI
mhm	spkr2	5	AckR
schiebst du jetzt	spkr1	1	InitI
die grüne schraube durch	spkr1	1	ContI
oder oder oder dre	spkr1	1	RepI
ähm drehst sie durch  je nachdem  ich weiss ja nicht genau 	spkr1	1	ContI
wie das noch war 	spkr1	1	ContI
so dass du jetzt ähm	spkr1	1	ContI
als tiefsten punkt deines flugzeuges den gelben würfel hast	spkr1	1	ContI
nee 	spkr2	1	InitI
die grüne schraube	spkr2	1	ContI
ah ja gut die grüne schraube wenn du es schon drangeschraubt hast okay	spkr1	1	InitI
jetzt müssen ähm am gelben würfel	spkr1	1	ContI
noch	spkr1	1	ContI
m die reifen befestigt werden	spkr1	1	ContI
des flugzeuges	spkr1	1	ContI
mhm	spkr2	5	AckR
und zwar werden die	spkr1	1	InitI
in dem flugzeug würde ich nicht fliegen	spkr2	1	InitI
na ja nee aber okay	spkr1	1	InitI
du hast es konstruiert du solltest damit fliegen	spkr2	1	InitI
wollen	spkr2	1	InitI
ich habe es nicht konstruiert ich habe es nur nachgebaut	spkr1	1	InitI
na gut	spkr2	1	InitI
okay 	spkr1	5	AckR
ähm an beiden seiten hast du jetzt ein gewinde	spkr1	1	InitI
an den beiden seiten	spkr1	1	ContI
des würfels	spkr1	1	ContI
ja	spkr2	1	InitI
gut 	spkr1	5	AckR
dann wird jetzt ähm kannst du das ja erstmal einfach draufstecken vielleicht erstmal ja was heisst draufstecken	spkr1	1	InitI
oder nimm nee du nimmst eine blaue du nimmst eine blaue	spkr1	1	RepI
schraube ja	spkr1	1	ContI
welche	spkr2	1	InitI
#ähm	spkr1
so wenn es	spkr1	1	InitI
so steht nimmst du jetzt erstmal	spkr1	1	ContI
die	spkr1	1	ContI
runde	spkr1	1	ContI
blaue schraube	spkr1	1	ContI
mhm	spkr2	5	AckR
legst das gelbe das ähm weisse lager drauf	spkr1	1	InitI
auf die schraube	spkr2	1	InitI
ja	spkr1	1	InitI
so dass es	spkr1	1	ContI
mit dem breiten teil nach	spkr2	1	InitI
was	spkr1	2	ReqRepR
vorne ne	spkr2	1	RepI
mit dem breiten teil gen blaues	spkr2	1	ContI
ja 	spkr1	1	InitI
ja so dass es	spkr1	1	ContI
ja	spkr2	1	InitI
bündig ist also bündig äh zumindest von blau an weiss ist jedenfalls bündig	spkr1	1	InitI
ja	spkr2	1	InitI
schliesst da ab dann legst du den reifen drauf	spkr1	1	InitI
ja	spkr2	5	AckR
drauf legst du dann	spkr1	1	InitI
diesen	spkr1	1	ContI
lilanen	spkr1	1	ContI
kreis	spkr1	1	ContI
ja	spkr2	5	AckR
und schraubst es	spkr1	1	InitI
in die seite also schraubst es von dir aus in dein flugzeug rein	spkr1	1	ContI
von	spkr2	1	InitI
wo aus sonst 	spkr2	1	InitI
ja 	spkr1	1	InitI
von der anderen seite von der anderen seite ist aber die andere schraube	spkr1	1	ContI
ja 	spkr2	1	InitI
ist doch genau das gleiche dann oder	spkr2	1	InitI
nee 	spkr1	1	InitI
aber ähm die schrauben sollen ja auch ungefähr auf der recht	spkr1	1	InitI
also wenn wenn du jetzt von hinten da hinterstehen würdest ist es jetzt die rechte seite ne	spkr1	1	ContI
ja	spkr2	1	InitI
die du jetzt schraubst	spkr1	1	InitI
okay	spkr1	1	ReqAckI
so	spkr1	1	InitI
und die sechskant	spkr2	1	InitI
same procedu	spkr1	1	InitI
schraube kommt also auf die linke seite vom flugzeug	spkr2	1	InitI
j	spkr1	1	InitI
same procedure für die andere seite	spkr1	1	RepI
ja	spkr2	5	AckR
einfach reinschrauben	spkr1	1	InitI
wunderbar	spkr2	5	AckR
und sieht nach flugzeug aus	spkr1	1	InitI
ja 	spkr2	1	InitI
mehr oder minder mit viel phantasie	spkr2	1	ContI
